<svg xmlns="http://www.w3.org/2000/svg" width="16.069" height="16.069" viewBox="0 0 16.069 16.069">
  <path id="Union_1" data-name="Union 1" d="M8.9,14.557V8.9h5.661v5.662Zm-8.9,0V8.9H5.662v5.662Zm8.9-8.9V0h5.661V5.661Zm-8.9,0V0H5.662V5.661Z" transform="translate(0.756 0.756)" fill="none" stroke="#fff" stroke-linecap="round" stroke-linejoin="round" stroke-miterlimit="10" stroke-width="1.512"/>
</svg>
