<svg id="language_ic" xmlns="http://www.w3.org/2000/svg" width="16.586" height="16.586" viewBox="0 0 16.586 16.586">
  <path id="language_ic-2" data-name="language_ic" d="M10.285,2a8.293,8.293,0,1,0,8.3,8.293A8.289,8.289,0,0,0,10.285,2Zm5.747,4.976H13.585a12.977,12.977,0,0,0-1.144-2.952A6.659,6.659,0,0,1,16.031,6.976ZM10.293,3.692a11.682,11.682,0,0,1,1.584,3.284H8.709A11.682,11.682,0,0,1,10.293,3.692Zm-6.419,8.26a6.487,6.487,0,0,1,0-3.317h2.8a13.7,13.7,0,0,0-.116,1.659,13.7,13.7,0,0,0,.116,1.659Zm.68,1.659H7a12.977,12.977,0,0,0,1.144,2.952A6.623,6.623,0,0,1,4.554,13.61ZM7,6.976H4.554A6.623,6.623,0,0,1,8.145,4.023,12.978,12.978,0,0,0,7,6.976Zm3.292,9.918A11.682,11.682,0,0,1,8.709,13.61h3.168A11.682,11.682,0,0,1,10.293,16.894Zm1.941-4.943H8.352a12.2,12.2,0,0,1-.133-1.659,12.1,12.1,0,0,1,.133-1.659h3.881a12.1,12.1,0,0,1,.133,1.659A12.2,12.2,0,0,1,12.233,11.951Zm.207,4.611a12.977,12.977,0,0,0,1.144-2.952h2.446A6.659,6.659,0,0,1,12.441,16.562Zm1.468-4.611a13.7,13.7,0,0,0,.116-1.659,13.7,13.7,0,0,0-.116-1.659h2.8a6.487,6.487,0,0,1,0,3.317Z" transform="translate(-2 -2)" fill="#fff"/>
</svg>
