<svg id="ic_stay_primary_portrait_24px" xmlns="http://www.w3.org/2000/svg" width="13.99" height="26.128" viewBox="0 0 13.99 26.128">
  <path id="ic_stay_primary_portrait_24px-2" data-name="ic_stay_primary_portrait_24px" d="M17,1.01,9.006,1s.949-4.2-1.052-4.129S7,1,7,1A2,2,0,0,0,5.01,3V21A2,2,0,0,0,7,23H17a2.006,2.006,0,0,0,2-2V3A2,2,0,0,0,17,1.01ZM17,19H7V5H17Z" transform="translate(-5.01 3.128)" fill="#fff"/>
</svg>
