<svg xmlns="http://www.w3.org/2000/svg" width="19.5" height="19.5" viewBox="0 0 19.5 19.5">
  <path id="ic_dashboard_24px" d="M3,13h8V3H3Zm0,8h8V15H3Zm10,0h8V11H13ZM13,3V9h8V3Z" transform="translate(-2.25 -2.25)" fill="none" stroke="#707070" stroke-width="1.5"/>
</svg>
